…
You can also specify a time range, for example, check for detections within the month of september:

```
fishintel_september_detections_tuna <- get_acoustic_detections(
  animal_project_code = "FISHINTEL",
  start_date = "2021-10-01",
  end_date = "2021-10-31", # The end date is exclusive
  scientific_name = "Thunnus thynnus"
)
fishintel_september_detections_tuna
```
```
# # A tibble: 45 × 20
#    detection_id date_time           tag_serial_number acoustic_tag_id animal_project_code animal_id scientific_name
#           <int> <dttm>              <chr>             <chr>           <chr>                   <int> <chr>          
#  1    590293357 2021-10-28 15:15:39 21272746          A69-1303-2746   FISHINTEL               10955 Thunnus thynnus
#  2    590293358 2021-10-28 15:16:58 21272746          A69-1303-2746   FISHINTEL               10955 Thunnus thynnus
#  3    590293359 2021-10-28 15:17:48 21272746          A69-1303-2746   FISHINTEL               10955 Thunnus thynnus
#  4    590293360 2021-10-28 15:18:26 21272746          A69-1303-2746   FISHINTEL               10955 Thunnus thynnus
#  5    590293361 2021-10-28 15:19:53 21272746          A69-1303-2746   FISHINTEL               10955 Thunnus thynnus
#  6    590293362 2021-10-28 15:21:21 21272746          A69-1303-2746   FISHINTEL               10955 Thunnus thynnus
#  7    590293363 2021-10-28 15:22:35 21272746          A69-1303-2746   FISHINTEL               10955 Thunnus thynnus
#  8    590293364 2021-10-28 15:23:26 21272746          A69-1303-2746   FISHINTEL               10955 Thunnus thynnus
#  9    590293365 2021-10-28 17:09:44 21272748          A69-1303-2748   FISHINTEL               10962 Thunnus thynnus
# 10    590293366 2021-10-28 17:10:34 21272748          A69-1303-2748   FISHINTEL               10962 Thunnus thynnus
# # … with 35 more rows, and 13 more variables: acoustic_project_code <chr>, receiver_id <chr>, station_name <chr>,
# #   deploy_latitude <dbl>, deploy_longitude <dbl>, sensor_value <dbl>, sensor_unit <chr>, sensor2_value <dbl>,
# #   sensor2_unit <chr>, signal_to_noise_ratio <int>, source_file <chr>, qc_flag <chr>, deployment_id <int>
```
…
